<svg width="24" height="24" viewBox="0 0 24 24" fill="none" xmlns="http://www.w3.org/2000/svg">
<mask id="mask0_141_3513" style="mask-type:alpha" maskUnits="userSpaceOnUse" x="0" y="0" width="24" height="24">
<rect width="24" height="24" fill="white"/>
</mask>
<g mask="url(#mask0_141_3513)">
<path d="M4.3077 19.5C3.80257 19.5 3.375 19.325 3.025 18.975C2.675 18.625 2.5 18.1974 2.5 17.6923V6.3077C2.5 5.80257 2.675 5.375 3.025 5.025C3.375 4.675 3.80257 4.5 4.3077 4.5H19.6923C20.1974 4.5 20.625 4.675 20.975 5.025C21.325 5.375 21.5 5.80257 21.5 6.3077V11.5961H3.99998V17.6923C3.99998 17.7692 4.03202 17.8397 4.09613 17.9038C4.16024 17.9679 4.23077 18 4.3077 18H12.8461C13.0586 18 13.2367 18.0719 13.3805 18.2157C13.5242 18.3595 13.5961 18.5377 13.5961 18.7503C13.5961 18.9629 13.5242 19.141 13.3805 19.2846C13.2367 19.4282 13.0586 19.5 12.8461 19.5H4.3077ZM3.99998 8.40385H20V6.3077C20 6.23077 19.9679 6.16024 19.9038 6.09613C19.8397 6.03203 19.7692 5.99998 19.6923 5.99998H4.3077C4.23077 5.99998 4.16024 6.03203 4.09613 6.09613C4.03202 6.16024 3.99998 6.23077 3.99998 6.3077V8.40385ZM19.25 18.75H17C16.7875 18.75 16.6094 18.6781 16.4656 18.5343C16.3219 18.3904 16.25 18.2122 16.25 17.9997C16.25 17.7871 16.3219 17.609 16.4656 17.4654C16.6094 17.3218 16.7875 17.25 17 17.25H19.25V15C19.25 14.7875 19.3219 14.6094 19.4657 14.4656C19.6095 14.3219 19.7877 14.25 20.0003 14.25C20.2129 14.25 20.391 14.3219 20.5346 14.4656C20.6782 14.6094 20.75 14.7875 20.75 15V17.25H23C23.2125 17.25 23.3906 17.3219 23.5344 17.4657C23.6781 17.6095 23.75 17.7877 23.75 18.0003C23.75 18.2129 23.6781 18.391 23.5344 18.5346C23.3906 18.6782 23.2125 18.75 23 18.75H20.75V21C20.75 21.2125 20.6781 21.3906 20.5343 21.5343C20.3904 21.6781 20.2122 21.75 19.9997 21.75C19.7871 21.75 19.609 21.6781 19.4654 21.5344C19.3218 21.3906 19.25 21.2125 19.25 21V18.75Z" fill="white"/>
</g>
</svg>
