<svg width="20" height="20" viewBox="0 0 20 20" fill="none" xmlns="http://www.w3.org/2000/svg">
<mask id="mask0_99_1960" style="mask-type:alpha" maskUnits="userSpaceOnUse" x="0" y="0" width="20" height="20">
<rect width="20" height="20" fill="#D9D9D9"/>
</mask>
<g mask="url(#mask0_99_1960)">
<path d="M10.7757 10.0001L8.83175 11.944C8.71636 12.058 8.65867 12.1879 8.65867 12.3335C8.65867 12.4791 8.71636 12.6046 8.83175 12.71C8.93715 12.8254 9.06366 12.8817 9.21127 12.8791C9.35888 12.8764 9.48728 12.8204 9.59648 12.7113L11.8442 10.4635C11.9801 10.3276 12.0481 10.1719 12.0481 9.99627C12.0481 9.82067 11.9797 9.66703 11.8429 9.53533L9.60269 7.29508C9.4947 7.18708 9.37019 7.13041 9.22917 7.12508C9.08814 7.11973 8.95928 7.17476 8.8426 7.29014C8.73387 7.40017 8.68217 7.52917 8.68752 7.67714C8.69285 7.82512 8.74892 7.95328 8.85573 8.06162L10.7757 10.0001ZM10.0071 17.5834C8.96392 17.5834 7.98142 17.386 7.05965 16.9913C6.13785 16.5966 5.33103 16.0534 4.63919 15.3619C3.94733 14.6704 3.40394 13.8642 3.00904 12.9434C2.61414 12.0227 2.41669 11.0388 2.41669 9.99192C2.41669 8.945 2.61405 7.96412 3.00877 7.04929C3.40349 6.13444 3.94662 5.3311 4.63815 4.63925C5.32969 3.94739 6.13585 3.40401 7.05662 3.0091C7.9774 2.6142 8.96124 2.41675 10.0081 2.41675C11.0551 2.41675 12.0359 2.61411 12.9508 3.00883C13.8656 3.40355 14.669 3.94668 15.3608 4.63821C16.0527 5.32975 16.5961 6.13428 16.991 7.05181C17.3859 7.96934 17.5833 8.94971 17.5833 9.99292C17.5833 11.0361 17.386 12.0186 16.9912 12.9404C16.5965 13.8622 16.0534 14.669 15.3619 15.3609C14.6703 16.0527 13.8658 16.5961 12.9482 16.991C12.0307 17.3859 11.0504 17.5834 10.0071 17.5834ZM10 16.5001C11.8056 16.5001 13.3403 15.8681 14.6042 14.6042C15.8681 13.3403 16.5 11.8056 16.5 10.0001C16.5 8.19451 15.8681 6.65978 14.6042 5.39589C13.3403 4.13201 11.8056 3.50006 10 3.50006C8.19444 3.50006 6.65972 4.13201 5.39583 5.39589C4.13194 6.65978 3.5 8.19451 3.5 10.0001C3.5 11.8056 4.13194 13.3403 5.39583 14.6042C6.65972 15.8681 8.19444 16.5001 10 16.5001Z" fill="#666666"/>
</g>
</svg>
