<svg width="40" height="40" viewBox="0 0 40 40" fill="none" xmlns="http://www.w3.org/2000/svg">
<rect width="40" height="40" rx="8" fill="#F0F0F0"/>
<mask id="mask0_99_1782" style="mask-type:alpha" maskUnits="userSpaceOnUse" x="6" y="6" width="28" height="28">
<rect x="6" y="6" width="28" height="28" fill="#D9D9D9"/>
</mask>
<g mask="url(#mask0_99_1782)">
<path d="M26.875 15.9336C26.1122 15.9336 25.4632 15.6631 24.9279 15.1222C24.3927 14.5812 24.125 13.9252 24.125 13.1543C24.125 12.3833 24.3927 11.7274 24.9279 11.1864C25.4632 10.6455 26.1122 10.375 26.875 10.375C27.6378 10.375 28.2869 10.6455 28.8221 11.1864C29.3574 11.7274 29.625 12.3833 29.625 13.1543C29.625 13.9252 29.3574 14.5812 28.8221 15.1222C28.2869 15.6631 27.6378 15.9336 26.875 15.9336ZM13.9135 27.3229L11.9116 29.3462C11.6269 29.6338 11.2997 29.6989 10.9298 29.5415C10.5599 29.384 10.375 29.1006 10.375 28.6912V13.99C10.375 13.4795 10.55 13.0474 10.9 12.6937C11.25 12.3399 11.6776 12.1631 12.1827 12.1631H22.225C22.1712 12.4157 22.1427 12.6668 22.1395 12.9162C22.1362 13.1656 22.1519 13.4199 22.1866 13.679C22.2378 14.1183 22.3353 14.5274 22.4789 14.9064C22.6225 15.2854 22.8058 15.6343 23.0289 15.953H14.125V17.469H25.0961C25.3359 17.6245 25.6105 17.7444 25.9202 17.8286C26.2298 17.9128 26.5481 17.9549 26.875 17.9549C27.3122 17.9549 27.7458 17.8917 28.176 17.7654C28.6061 17.6391 29.0058 17.4496 29.375 17.1969V25.4959C29.375 26.0065 29.2 26.4386 28.85 26.7923C28.5 27.1461 28.0724 27.3229 27.5673 27.3229H13.9135ZM14.125 20.501H25.625V18.985H14.125V20.501ZM14.125 23.5329H21.625V22.017H14.125V23.5329Z" fill="#666666"/>
</g>
</svg>
