<svg width="40" height="40" viewBox="0 0 40 40" fill="none" xmlns="http://www.w3.org/2000/svg">
<rect width="40" height="40" rx="8" fill="#F0F0F0"/>
<mask id="mask0_99_1762" style="mask-type:alpha" maskUnits="userSpaceOnUse" x="6" y="6" width="28" height="28">
<rect x="6" y="6" width="28" height="28" fill="#FF6E40"/>
</mask>
<g mask="url(#mask0_99_1762)">
<path d="M24.6667 18.6986C24.9524 18.6986 25.1958 18.598 25.397 18.3968C25.5982 18.1957 25.6988 17.9522 25.6988 17.6666C25.6988 17.3809 25.5982 17.1375 25.397 16.9363C25.1958 16.7351 24.9524 16.6345 24.6667 16.6345C24.381 16.6345 24.1376 16.7351 23.9364 16.9363C23.7353 17.1375 23.6347 17.3809 23.6347 17.6666C23.6347 17.9522 23.7353 18.1957 23.9364 18.3968C24.1376 18.598 24.381 18.6986 24.6667 18.6986ZM16.2084 16.2082H20.2917C20.5396 16.2082 20.7474 16.1243 20.9152 15.9566C21.0829 15.7888 21.1667 15.5809 21.1667 15.3329C21.1667 15.0848 21.0829 14.877 20.9152 14.7095C20.7474 14.542 20.5396 14.4583 20.2917 14.4583H16.2084C15.9605 14.4583 15.7527 14.5421 15.5849 14.7099C15.4172 14.8777 15.3334 15.0856 15.3334 15.3336C15.3334 15.5816 15.4172 15.7894 15.5849 15.9569C15.7527 16.1244 15.9605 16.2082 16.2084 16.2082ZM13.2379 29.9165C12.8131 29.9165 12.4094 29.7719 12.0267 29.4825C11.644 29.1931 11.3904 28.8405 11.2658 28.4245C10.7797 26.7463 10.3867 25.3243 10.0868 24.1584C9.78691 22.9924 9.55021 21.9873 9.37671 21.143C9.2032 20.2987 9.08316 19.562 9.01659 18.9331C8.95003 18.3041 8.91675 17.6875 8.91675 17.0832C8.91675 15.457 9.48241 14.0782 10.6137 12.9469C11.745 11.8156 13.1238 11.2499 14.7501 11.2499H20.8751C21.4001 10.5499 22.0417 9.98604 22.8001 9.55826C23.5584 9.13048 24.3751 8.9166 25.2501 8.9166C25.5741 8.9166 25.8496 9.03022 26.0764 9.25747C26.3033 9.48471 26.4167 9.76065 26.4167 10.0853C26.4167 10.1632 26.4058 10.2399 26.3841 10.3154C26.3625 10.391 26.3397 10.4661 26.3157 10.5409C26.2305 10.7698 26.1482 11.0173 26.0689 11.2836C25.9897 11.5498 25.9156 11.8878 25.8468 12.2977L28.8824 15.3333H30.0289C30.3276 15.3333 30.5781 15.4343 30.7802 15.6365C30.9823 15.8386 31.0834 16.089 31.0834 16.3878V21.6938C31.0834 21.9259 31.0179 22.1313 30.887 22.3099C30.7562 22.4885 30.5755 22.6189 30.3452 22.7011L27.8997 23.5066L26.4301 28.4111C26.2894 28.8689 26.0342 29.2342 25.6646 29.5072C25.295 29.7801 24.8726 29.9165 24.3975 29.9165H22.6924C22.1124 29.9165 21.6159 29.71 21.2029 29.297C20.7899 28.884 20.5834 28.3875 20.5834 27.8076V27.5832H17.0834V27.8076C17.0834 28.3875 16.8768 28.884 16.4638 29.297C16.0508 29.71 15.5543 29.9165 14.9744 29.9165H13.2379Z" fill="#666666"/>
</g>
</svg>
