<svg width="25" height="24" viewBox="0 0 25 24" fill="none" xmlns="http://www.w3.org/2000/svg">
<mask id="mask0_211_1641" style="mask-type:alpha" maskUnits="userSpaceOnUse" x="0" y="0" width="25" height="24">
<rect x="0.5" width="24" height="24" fill="#D9D9D9"/>
</mask>
<g mask="url(#mask0_211_1641)">
<path d="M19.3746 13.75C19.162 13.75 18.984 13.6781 18.8404 13.5344C18.6968 13.3907 18.625 13.2125 18.625 13V10.75H16.375C16.1625 10.75 15.9844 10.6781 15.8406 10.5343C15.6969 10.3905 15.625 10.2123 15.625 9.99971C15.625 9.78711 15.6969 9.60902 15.8406 9.46543C15.9844 9.32185 16.1625 9.25006 16.375 9.25006H18.625V7.00003C18.625 6.78753 18.6969 6.60941 18.8407 6.46566C18.9845 6.32193 19.1627 6.25006 19.3753 6.25006C19.5879 6.25006 19.766 6.32193 19.9096 6.46566C20.0532 6.60941 20.125 6.78753 20.125 7.00003V9.25006H22.375C22.5875 9.25006 22.7656 9.32196 22.9093 9.46576C23.0531 9.60958 23.125 9.78778 23.125 10.0004C23.125 10.213 23.0531 10.391 22.9093 10.5346C22.7656 10.6782 22.5875 10.75 22.375 10.75H20.125V13C20.125 13.2125 20.053 13.3907 19.9092 13.5344C19.7654 13.6781 19.5872 13.75 19.3746 13.75ZM9.37498 11.6923C8.41248 11.6923 7.58853 11.3496 6.90313 10.6642C6.21771 9.97879 5.875 9.15484 5.875 8.19236C5.875 7.22986 6.21771 6.40591 6.90313 5.72051C7.58853 5.03509 8.41248 4.69238 9.37498 4.69238C10.3375 4.69238 11.1614 5.03509 11.8468 5.72051C12.5322 6.40591 12.8749 7.22986 12.8749 8.19236C12.8749 9.15484 12.5322 9.97879 11.8468 10.6642C11.1614 11.3496 10.3375 11.6923 9.37498 11.6923ZM2.77885 19.3077C2.52275 19.3077 2.30808 19.2211 2.13485 19.0478C1.96162 18.8746 1.875 18.6599 1.875 18.4038V17.0846C1.875 16.5949 2.00802 16.1414 2.27405 15.7241C2.54007 15.3068 2.89551 14.986 3.34038 14.7616C4.32884 14.277 5.32595 13.9135 6.3317 13.6712C7.33747 13.4289 8.35189 13.3078 9.37498 13.3078C10.398 13.3078 11.4125 13.4289 12.4182 13.6712C13.424 13.9135 14.4211 14.277 15.4096 14.7616C15.8544 14.986 16.2099 15.3068 16.4759 15.7241C16.7419 16.1414 16.8749 16.5949 16.8749 17.0846V18.4038C16.8749 18.6599 16.7883 18.8746 16.6151 19.0478C16.4418 19.2211 16.2272 19.3077 15.9711 19.3077H2.77885ZM3.37498 17.8077H15.375V17.0846C15.375 16.8821 15.3163 16.6946 15.199 16.5221C15.0817 16.3497 14.9224 16.209 14.7211 16.1C13.8596 15.6757 12.9811 15.3542 12.0857 15.1356C11.1902 14.917 10.2867 14.8077 9.37498 14.8077C8.46326 14.8077 7.55969 14.917 6.66428 15.1356C5.76884 15.3542 4.89036 15.6757 4.02883 16.1C3.82754 16.209 3.66824 16.3497 3.55093 16.5221C3.43363 16.6946 3.37498 16.8821 3.37498 17.0846V17.8077ZM9.37498 10.1924C9.92498 10.1924 10.3958 9.99653 10.7875 9.60486C11.1791 9.21319 11.375 8.74236 11.375 8.19236C11.375 7.64236 11.1791 7.17153 10.7875 6.77986C10.3958 6.38819 9.92498 6.19236 9.37498 6.19236C8.82498 6.19236 8.35414 6.38819 7.96248 6.77986C7.57081 7.17153 7.37498 7.64236 7.37498 8.19236C7.37498 8.74236 7.57081 9.21319 7.96248 9.60486C8.35414 9.99653 8.82498 10.1924 9.37498 10.1924Z" fill="white"/>
</g>
</svg>
