<svg width="40" height="40" viewBox="0 0 40 40" fill="none" xmlns="http://www.w3.org/2000/svg">
<rect width="40" height="40" rx="12" fill="#F0F0F0" fill-opacity="0.2"/>
<mask id="mask0_99_1510" style="mask-type:alpha" maskUnits="userSpaceOnUse" x="6" y="6" width="28" height="28">
<rect x="6" y="6" width="28" height="28" fill="#D9D9D9"/>
</mask>
<g mask="url(#mask0_99_1510)">
<path d="M20 27.7067C21.1831 27.7067 22.1819 27.2834 22.9963 26.4368C23.8107 25.5902 24.2179 24.5739 24.2179 23.3878V19.2595C24.2179 19.0113 24.1342 18.8033 23.9666 18.6358C23.7991 18.4683 23.5912 18.3845 23.3429 18.3845C23.0947 18.3845 22.8868 18.4683 22.7192 18.6358C22.5517 18.8033 22.468 19.0113 22.468 19.2595V23.3878C22.468 24.0893 22.2313 24.6928 21.7578 25.1984C21.2845 25.7039 20.6985 25.9567 20 25.9567C19.3135 25.9567 18.7305 25.7039 18.2511 25.1984C17.7717 24.6928 17.532 24.0893 17.532 23.3878V16.9935C17.532 16.7512 17.6091 16.5467 17.7631 16.3799C17.9172 16.2131 18.1057 16.1297 18.3285 16.1297C18.5634 16.1297 18.7548 16.2131 18.9029 16.3799C19.051 16.5467 19.125 16.7512 19.125 16.9935V22.5128C19.125 22.7611 19.2088 22.969 19.3763 23.1365C19.5438 23.304 19.7517 23.3878 20 23.3878C20.2483 23.3878 20.4562 23.304 20.6237 23.1365C20.7912 22.969 20.875 22.7611 20.875 22.5128V16.9935C20.875 16.2741 20.6304 15.6586 20.1413 15.1471C19.6522 14.6356 19.048 14.3798 18.3285 14.3798C17.6091 14.3798 17.0048 14.6356 16.5157 15.1471C16.0266 15.6586 15.7821 16.2741 15.7821 16.9935V23.3878C15.7821 24.5739 16.1923 25.5902 17.0127 26.4368C17.8331 27.2834 18.8289 27.7067 20 27.7067ZM13.359 31.0833C12.7697 31.0833 12.2709 30.8791 11.8625 30.4708C11.4542 30.0624 11.25 29.5636 11.25 28.9743V11.0256C11.25 10.4363 11.4542 9.93749 11.8625 9.52916C12.2709 9.12082 12.7697 8.91666 13.359 8.91666H23.3429L28.75 14.3237V28.9743C28.75 29.5636 28.5458 30.0624 28.1375 30.4708C27.7291 30.8791 27.2303 31.0833 26.641 31.0833H13.359ZM22.468 10.6666V14.1442C22.468 14.4448 22.5686 14.6957 22.7697 14.8969C22.9709 15.0981 23.2218 15.1987 23.5224 15.1987H27L22.468 10.6666Z" fill="#2E3032"/>
</g>
</svg>
